module gitlab.com/feoktistov_av/bitrix-client

go 1.18

require (
	gitlab.com/sprinttechnologies/libs/golibs/magnit v0.9.0
	gitlab.com/sprinttechnologies/libs/golibs/oapi-codegen v1.9.1
	go.opentelemetry.io/otel v1.11.1
)

require (
	github.com/beorn7/perks v1.0.1 // indirect
	github.com/cenkalti/backoff/v4 v4.1.3 // indirect
	github.com/cespare/xxhash/v2 v2.1.2 // indirect
	github.com/go-logr/logr v1.2.3 // indirect
	github.com/go-logr/stdr v1.2.2 // indirect
	github.com/golang/protobuf v1.5.2 // indirect
	github.com/google/uuid v1.3.0 // indirect
	github.com/grpc-ecosystem/grpc-gateway/v2 v2.7.0 // indirect
	github.com/matttproud/golang_protobuf_extensions v1.0.1 // indirect
	github.com/prometheus/client_golang v1.13.0 // indirect
	github.com/prometheus/client_model v0.2.0 // indirect
	github.com/prometheus/common v0.37.0 // indirect
	github.com/prometheus/procfs v0.8.0 // indirect
	go.opentelemetry.io/contrib/propagators/b3 v1.11.1 // indirect
	go.opentelemetry.io/otel/exporters/otlp/internal/retry v1.11.1 // indirect
	go.opentelemetry.io/otel/exporters/otlp/otlptrace v1.11.1 // indirect
	go.opentelemetry.io/otel/exporters/otlp/otlptrace/otlptracegrpc v1.11.1 // indirect
	go.opentelemetry.io/otel/sdk v1.11.1 // indirect
	go.opentelemetry.io/otel/trace v1.11.1 // indirect
	go.opentelemetry.io/proto/otlp v0.19.0 // indirect
	golang.org/x/net v0.0.0-20221002022538-bcab6841153b // indirect
	golang.org/x/sys v0.0.0-20220928140112-f11e5e49a4ec // indirect
	golang.org/x/text v0.3.7 // indirect
	google.golang.org/genproto v0.0.0-20211118181313-81c1377c94b1 // indirect
	google.golang.org/grpc v1.50.1 // indirect
	google.golang.org/protobuf v1.28.1 // indirect
)
